00000000 // ADDR=0x00  | Lengh=0 (used to flush receive fifo)
000000B4 // ADDR=0x00  | Lengh=180(B4)
00C80001 // ADDR=0xC8  | Lengh=1
00D000B4 // ADDR=0xD0  | Lengh=180(B4)
01980001 // ADDR=0x198 | Lengh=1
02000001 // ADDR=0x200 | Lengh=1
